%YAML 1.1
%TAG !u! tag:unity3d.com,2011:
--- !u!1 &3338086252287574011
GameObject:
  m_ObjectHideFlags: 0
  m_CorrespondingSourceObject: {fileID: 0}
  m_PrefabInstance: {fileID: 0}
  m_PrefabAsset: {fileID: 0}
  serializedVersion: 6
  m_Component:
  - component: {fileID: 8126356324618267384}
  - component: {fileID: 3127723048869289466}
  m_Layer: 0
  m_Name: Screen (7)
  m_TagString: Untagged
  m_Icon: {fileID: 0}
  m_NavMeshLayer: 0
  m_StaticEditorFlags: 0
  m_IsActive: 1
--- !u!4 &8126356324618267384
Transform:
  m_ObjectHideFlags: 0
  m_CorrespondingSourceObject: {fileID: 0}
  m_PrefabInstance: {fileID: 0}
  m_PrefabAsset: {fileID: 0}
  m_GameObject: {fileID: 3338086252287574011}
  m_LocalRotation: {x: 0, y: 0, z: 0, w: 1}
  m_LocalPosition: {x: 84, y: 15.75, z: 0}
  m_LocalScale: {x: 1, y: 1, z: 1}
  m_Children:
  - {fileID: 822874672681310849}
  m_Father: {fileID: 0}
  m_RootOrder: 0
  m_LocalEulerAnglesHint: {x: 0, y: 0, z: 0}
--- !u!212 &3127723048869289466
SpriteRenderer:
  m_ObjectHideFlags: 0
  m_CorrespondingSourceObject: {fileID: 0}
  m_PrefabInstance: {fileID: 0}
  m_PrefabAsset: {fileID: 0}
  m_GameObject: {fileID: 3338086252287574011}
  m_Enabled: 1
  m_CastShadows: 0
  m_ReceiveShadows: 0
  m_DynamicOccludee: 1
  m_MotionVectors: 1
  m_LightProbeUsage: 1
  m_ReflectionProbeUsage: 1
  m_RayTracingMode: 0
  m_RayTraceProcedural: 0
  m_RenderingLayerMask: 1
  m_RendererPriority: 0
  m_Materials:
  - {fileID: 10754, guid: 0000000000000000f000000000000000, type: 0}
  m_StaticBatchInfo:
    firstSubMesh: 0
    subMeshCount: 0
  m_StaticBatchRoot: {fileID: 0}
  m_ProbeAnchor: {fileID: 0}
  m_LightProbeVolumeOverride: {fileID: 0}
  m_ScaleInLightmap: 1
  m_ReceiveGI: 1
  m_PreserveUVs: 0
  m_IgnoreNormalsForChartDetection: 0
  m_ImportantGI: 0
  m_StitchLightmapSeams: 1
  m_SelectedEditorRenderState: 0
  m_MinimumChartSize: 4
  m_AutoUVMaxDistance: 0.5
  m_AutoUVMaxAngle: 89
  m_LightmapParameters: {fileID: 0}
  m_SortingLayerID: 0
  m_SortingLayer: 0
  m_SortingOrder: -50
  m_Sprite: {fileID: 21300000, guid: b2ae435bc833c7342857ca3cd5daee76, type: 3}
  m_Color: {r: 0.5377358, g: 0, b: 0, a: 0.14117648}
  m_FlipX: 0
  m_FlipY: 0
  m_DrawMode: 0
  m_Size: {x: 8.96, y: 5.04}
  m_AdaptiveModeThreshold: 0.5
  m_SpriteTileMode: 0
  m_WasSpriteAssigned: 1
  m_MaskInteraction: 0
  m_SpriteSortPoint: 0
--- !u!1001 &3913346462148074808
PrefabInstance:
  m_ObjectHideFlags: 0
  serializedVersion: 2
  m_Modification:
    m_TransformParent: {fileID: 8126356324618267384}
    m_Modifications:
    - target: {fileID: 4406086106581026745, guid: 0aed7bbdeee45734ba1cd416af99ce1c, type: 3}
      propertyPath: m_RootOrder
      value: 0
      objectReference: {fileID: 0}
    - target: {fileID: 4406086106581026745, guid: 0aed7bbdeee45734ba1cd416af99ce1c, type: 3}
      propertyPath: m_LocalScale.x
      value: 28
      objectReference: {fileID: 0}
    - target: {fileID: 4406086106581026745, guid: 0aed7bbdeee45734ba1cd416af99ce1c, type: 3}
      propertyPath: m_LocalScale.y
      value: 3
      objectReference: {fileID: 0}
    - target: {fileID: 4406086106581026745, guid: 0aed7bbdeee45734ba1cd416af99ce1c, type: 3}
      propertyPath: m_LocalScale.z
      value: 4
      objectReference: {fileID: 0}
    - target: {fileID: 4406086106581026745, guid: 0aed7bbdeee45734ba1cd416af99ce1c, type: 3}
      propertyPath: m_LocalPosition.x
      value: 0
      objectReference: {fileID: 0}
    - target: {fileID: 4406086106581026745, guid: 0aed7bbdeee45734ba1cd416af99ce1c, type: 3}
      propertyPath: m_LocalPosition.y
      value: -5.75
      objectReference: {fileID: 0}
    - target: {fileID: 4406086106581026745, guid: 0aed7bbdeee45734ba1cd416af99ce1c, type: 3}
      propertyPath: m_LocalPosition.z
      value: 0
      objectReference: {fileID: 0}
    - target: {fileID: 4406086106581026745, guid: 0aed7bbdeee45734ba1cd416af99ce1c, type: 3}
      propertyPath: m_LocalRotation.w
      value: 1
      objectReference: {fileID: 0}
    - target: {fileID: 4406086106581026745, guid: 0aed7bbdeee45734ba1cd416af99ce1c, type: 3}
      propertyPath: m_LocalRotation.x
      value: -0
      objectReference: {fileID: 0}
    - target: {fileID: 4406086106581026745, guid: 0aed7bbdeee45734ba1cd416af99ce1c, type: 3}
      propertyPath: m_LocalRotation.y
      value: -0
      objectReference: {fileID: 0}
    - target: {fileID: 4406086106581026745, guid: 0aed7bbdeee45734ba1cd416af99ce1c, type: 3}
      propertyPath: m_LocalRotation.z
      value: -0
      objectReference: {fileID: 0}
    - target: {fileID: 4406086106581026745, guid: 0aed7bbdeee45734ba1cd416af99ce1c, type: 3}
      propertyPath: m_LocalEulerAnglesHint.x
      value: 0
      objectReference: {fileID: 0}
    - target: {fileID: 4406086106581026745, guid: 0aed7bbdeee45734ba1cd416af99ce1c, type: 3}
      propertyPath: m_LocalEulerAnglesHint.y
      value: 0
      objectReference: {fileID: 0}
    - target: {fileID: 4406086106581026745, guid: 0aed7bbdeee45734ba1cd416af99ce1c, type: 3}
      propertyPath: m_LocalEulerAnglesHint.z
      value: 0
      objectReference: {fileID: 0}
    - target: {fileID: 4406086106581026748, guid: 0aed7bbdeee45734ba1cd416af99ce1c, type: 3}
      propertyPath: m_Name
      value: Platform (7)
      objectReference: {fileID: 0}
    - target: {fileID: 4406086107887011747, guid: 0aed7bbdeee45734ba1cd416af99ce1c, type: 3}
      propertyPath: m_LocalPosition.x
      value: 0
      objectReference: {fileID: 0}
    m_RemovedComponents:
    - {fileID: 6357744477538891697, guid: 0aed7bbdeee45734ba1cd416af99ce1c, type: 3}
  m_SourcePrefab: {fileID: 100100000, guid: 0aed7bbdeee45734ba1cd416af99ce1c, type: 3}
--- !u!4 &822874672681310849 stripped
Transform:
  m_CorrespondingSourceObject: {fileID: 4406086106581026745, guid: 0aed7bbdeee45734ba1cd416af99ce1c, type: 3}
  m_PrefabInstance: {fileID: 3913346462148074808}
  m_PrefabAsset: {fileID: 0}
